L03 Data Transformation
…
Code

# part b
flights %>% 
  filter(dest == "IAH" | dest == "HOU")

# A tibble: 9,313 × 19
    year month   day dep_time sched_de…¹ dep_d…² arr_t…³ sched…⁴ arr_d…⁵ carrier
   <int> <int> <int>    <int>      <int>   <dbl>   <int>   <int>   <dbl> <chr>  
 1  2013     1     1      517        515       2     830     819      11 UA     
 2  2013     1     1      533        529       4     850     830      20 UA     
 3  2013     1     1      623        627      -4     933     932       1 UA     
 4  2013     1     1      728        732      -4    1041    1038       3 UA     
 5  2013     1     1      739        739       0    1104    1038      26 UA     
 6  2013     1     1      908        908       0    1228    1219       9 UA     
 7  2013     1     1     1028       1026       2    1350    1339      11 UA     
 8  2013     1     1     1044       1045      -1    1352    1351       1 UA     
 9  2013     1     1     1114        900     134    1447    1222     145 UA     
10  2013     1     1     1205       1200       5    1503    1505      -2 UA     
# … with 9,303 more rows, 9 more variables: flight <int>, tailnum <chr>,
#   origin <chr>, dest <chr>, air_time <dbl>, distance <dbl>, hour <dbl>,
#   minute <dbl>, time_hour <dttm>, and abbreviated variable names
#   ¹​sched_dep_time, ²​dep_delay, ³​arr_time, ⁴​sched_arr_time, ⁵​arr_delay

Code

# part c
flights %>% 
  filter(carrier == "UA" | carrier == "AA" | carrier == "DL")

# A tibble: 139,504 × 19
    year month   day dep_time sched_de…¹ dep_d…² arr_t…³ sched…⁴ arr_d…⁵ carrier
   <int> <int> <int>    <int>      <int>   <dbl>   <int>   <int>   <dbl> <chr>  
 1  2013     1     1      517        515       2     830     819      11 UA     
 2  2013     1     1      533        529       4     850     830      20 UA     
 3  2013     1     1      542        540       2     923     850      33 AA     
 4  2013     1     1      554        600      -6     812     837     -25 DL     
 5  2013     1     1      554        558      -4     740     728      12 UA     
 6  2013     1     1      558        600      -2     753     745       8 AA     
 7  2013     1     1      558        600      -2     924     917       7 UA     
 8  2013     1     1      558        600      -2     923     937     -14 UA     
 9  2013     1     1      559        600      -1     941     910      31 AA     
10  2013     1     1      559        600      -1     854     902      -8 UA     
# … with 139,494 more rows, 9 more variables: flight <int>, tailnum <chr>,
#   origin <chr>, dest <chr>, air_time <dbl>, distance <dbl>, hour <dbl>,
#   minute <dbl>, time_hour <dttm>, and abbreviated variable names
#   ¹​sched_dep_time, ²​dep_delay, ³​arr_time, ⁴​sched_arr_time, ⁵​arr_delay

Code

# part d
flights %>% 
  filter(month == 7 | month == 8 | month == 9)

# A tibble: 86,326 × 19
    year month   day dep_time sched_de…¹ dep_d…² arr_t…³ sched…⁴ arr_d…⁵ carrier
   <int> <int> <int>    <int>      <int>   <dbl>   <int>   <int>   <dbl> <chr>  
 1  2013     7     1        1       2029     212     236    2359     157 B6     
 2  2013     7     1        2       2359       3     344     344       0 B6     
 3  2013     7     1       29       2245     104     151       1     110 B6     
 4  2013     7     1       43       2130     193     322      14     188 B6     
 5  2013     7     1       44       2150     174     300     100     120 AA     
 6  2013     7     1       46       2051     235     304    2358     186 B6     
 7  2013     7     1       48       2001     287     308    2305     243 VX     
 8  2013     7     1       58       2155     183     335      43     172 B6     
 9  2013     7     1      100       2146     194     327      30     177 B6     
10  2013     7     1      100       2245     135     337     135     122 B6     
# … with 86,316 more rows, 9 more variables: flight <int>, tailnum <chr>,
#   origin <chr>, dest <chr>, air_time <dbl>, distance <dbl>, hour <dbl>,
#   minute <dbl>, time_hour <dttm>, and abbreviated variable names
#   ¹​sched_dep_time, ²​dep_delay, ³​arr_time, ⁴​sched_arr_time, ⁵​arr_delay

Code

# part e
flights %>% 
  filter(arr_delay >= 120 & dep_delay <= 0 )

# A tibble: 29 × 19
    year month   day dep_time sched_de…¹ dep_d…² arr_t…³ sched…⁴ arr_d…⁵ carrier
   <int> <int> <int>    <int>      <int>   <dbl>   <int>   <int>   <dbl> <chr>  
 1  2013     1    27     1419       1420      -1    1754    1550     124 MQ     
 2  2013    10     7     1350       1350       0    1736    1526     130 EV     
 3  2013    10     7     1357       1359      -2    1858    1654     124 AA     
 4  2013    10    16      657        700      -3    1258    1056     122 B6     
 5  2013    11     1      658        700      -2    1329    1015     194 VX     
 6  2013     3    18     1844       1847      -3      39    2219     140 UA     
 7  2013     4    17     1635       1640      -5    2049    1845     124 MQ     
 8  2013     4    18      558        600      -2    1149     850     179 AA     
 9  2013     4    18      655        700      -5    1213     950     143 AA     
10  2013     5    22     1827       1830      -3    2217    2010     127 MQ     
# … with 19 more rows, 9 more variables: flight <int>, tailnum <chr>,
#   origin <chr>, dest <chr>, air_time <dbl>, distance <dbl>, hour <dbl>,
#   minute <dbl>, time_hour <dttm>, and abbreviated variable names
#   ¹​sched_dep_time, ²​dep_delay, ³​arr_time, ⁴​sched_arr_time, ⁵​arr_delay

Code

# part f
flights %>% 
  filter(dep_delay >= 60, (dep_delay - arr_delay) > 30)

# A tibble: 1,844 × 19
    year month   day dep_time sched_de…¹ dep_d…² arr_t…³ sched…⁴ arr_d…⁵ carrier
   <int> <int> <int>    <int>      <int>   <dbl>   <int>   <int>   <dbl> <chr>  
 1  2013     1     1     2205       1720     285      46    2040     246 AA     
 2  2013     1     1     2326       2130     116     131      18      73 B6     
 3  2013     1     3     1503       1221     162    1803    1555     128 UA     
 4  2013     1     3     1839       1700      99    2056    1950      66 AA     
 5  2013     1     3     1850       1745      65    2148    2120      28 AA     
 6  2013     1     3     1941       1759     102    2246    2139      67 UA     
 7  2013     1     3     1950       1845      65    2228    2227       1 B6     
 8  2013     1     3     2015       1915      60    2135    2111      24 9E     
 9  2013     1     3     2257       2000     177      45    2224     141 9E     
10  2013     1     4     1917       1700     137    2135    1950     105 AA     
# … with 1,834 more rows, 9 more variables: flight <int>, tailnum <chr>,
#   origin <chr>, dest <chr>, air_time <dbl>, distance <dbl>, hour <dbl>,
#   minute <dbl>, time_hour <dttm>, and abbreviated variable names
#   ¹​sched_dep_time, ²​dep_delay, ³​arr_time, ⁴​sched_arr_time, ⁵​arr_delay

Code

# part g
flights %>% 
  filter(dep_time == 2400 | dep_time <= 600)

# A tibble: 9,373 × 19
    year month   day dep_time sched_de…¹ dep_d…² arr_t…³ sched…⁴ arr_d…⁵ carrier
   <int> <int> <int>    <int>      <int>   <dbl>   <int>   <int>   <dbl> <chr>  
 1  2013     1     1      517        515       2     830     819      11 UA     
 2  2013     1     1      533        529       4     850     830      20 UA     
 3  2013     1     1      542        540       2     923     850      33 AA     
 4  2013     1     1      544        545      -1    1004    1022     -18 B6     
 5  2013     1     1      554        600      -6     812     837     -25 DL     
 6  2013     1     1      554        558      -4     740     728      12 UA     
 7  2013     1     1      555        600      -5     913     854      19 B6     
 8  2013     1     1      557        600      -3     709     723     -14 EV     
 9  2013     1     1      557        600      -3     838     846      -8 B6     
10  2013     1     1      558        600      -2     753     745       8 AA     
# … with 9,363 more rows, 9 more variables: flight <int>, tailnum <chr>,
#   origin <chr>, dest <chr>, air_time <dbl>, distance <dbl>, hour <dbl>,
#   minute <dbl>, time_hour <dttm>, and abbreviated variable names
#   ¹​sched_dep_time, ²​dep_delay, ³​arr_time, ⁴​sched_arr_time, ⁵​arr_delay
…
ANSWER:

Code

d_flight_2 <- filter(flights, between(month, 7, 9))

Exercise 5

How many flights have a missing dep_time? What other variables are missing? What might these rows represent?

Code

filter(flights, is.na(dep_time))

# A tibble: 8,255 × 19
    year month   day dep_time sched_de…¹ dep_d…² arr_t…³ sched…⁴ arr_d…⁵ carrier
   <int> <int> <int>    <int>      <int>   <dbl>   <int>   <int>   <dbl> <chr>  
 1  2013     1     1       NA       1630      NA      NA    1815      NA EV     
 2  2013     1     1       NA       1935      NA      NA    2240      NA AA     
 3  2013     1     1       NA       1500      NA      NA    1825      NA AA     
 4  2013     1     1       NA        600      NA      NA     901      NA B6     
 5  2013     1     2       NA       1540      NA      NA    1747      NA EV     
 6  2013     1     2       NA       1620      NA      NA    1746      NA EV     
 7  2013     1     2       NA       1355      NA      NA    1459      NA EV     
 8  2013     1     2       NA       1420      NA      NA    1644      NA EV     
 9  2013     1     2       NA       1321      NA      NA    1536      NA EV     
10  2013     1     2       NA       1545      NA      NA    1910      NA AA     
# … with 8,245 more rows, 9 more variables: flight <int>, tailnum <chr>,
#   origin <chr>, dest <chr>, air_time <dbl>, distance <dbl>, hour <dbl>,
#   minute <dbl>, time_hour <dttm>, and abbreviated variable names
#   ¹​sched_dep_time, ²​dep_delay, ³​arr_time, ⁴​sched_arr_time, ⁵​arr_delay

ANSWER: There are 8,255 flights missing ‘dep_time’. The other variables missing are ‘dep_delay’, ‘arr_time’, ‘arr_delay’, and ‘air_time’. These rows might represent cancelled flights or flights whose times were not documented.

Exercise 6

How could you use arrange() to sort the dataset so that flights missing arr_delay are at the start/top of the tibble/table? Hint: Use is.na()

Code

flights %>% 
  arrange(desc(is.na(arr_delay)))

# A tibble: 336,776 × 19
    year month   day dep_time sched_de…¹ dep_d…² arr_t…³ sched…⁴ arr_d…⁵ carrier
   <int> <int> <int>    <int>      <int>   <dbl>   <int>   <int>   <dbl> <chr>  
 1  2013     1     1     1525       1530      -5    1934    1805      NA MQ     
 2  2013     1     1     1528       1459      29    2002    1647      NA EV     
 3  2013     1     1     1740       1745      -5    2158    2020      NA MQ     
 4  2013     1     1     1807       1738      29    2251    2103      NA UA     
 5  2013     1     1     1939       1840      59      29    2151      NA 9E     
 6  2013     1     1     1952       1930      22    2358    2207      NA EV     
 7  2013     1     1     2016       1930      46      NA    2220      NA EV     
 8  2013     1     1       NA       1630      NA      NA    1815      NA EV     
 9  2013     1     1       NA       1935      NA      NA    2240      NA AA     
10  2013     1     1       NA       1500      NA      NA    1825      NA AA     
# … with 336,766 more rows, 9 more variables: flight <int>, tailnum <chr>,
#   origin <chr>, dest <chr>, air_time <dbl>, distance <dbl>, hour <dbl>,
#   minute <dbl>, time_hour <dttm>, and abbreviated variable names
#   ¹​sched_dep_time, ²​dep_delay, ³​arr_time, ⁴​sched_arr_time, ⁵​arr_delay

Exercise 7

Sort flights to find the most delayed flights. Find the flights that left earliest. Name the flight at top of the list (e.g. New York City JFK to Chicago ORD).

Code

flights %>% 
  arrange(dep_delay) %>% 
  select(dep_delay, origin, flight, dest, time_hour)

# A tibble: 336,776 × 5
   dep_delay origin flight dest  time_hour          
       <dbl> <chr>   <int> <chr> <dttm>             
 1       -43 JFK        97 DEN   2013-12-07 21:00:00
 2       -33 LGA      1715 MSY   2013-02-03 20:00:00
 3       -32 LGA      5713 IAD   2013-11-10 14:00:00
 4       -30 LGA      1435 TPA   2013-01-11 19:00:00
 5       -27 LGA       837 DEN   2013-01-29 17:00:00
 6       -26 LGA      3478 DTW   2013-08-09 07:00:00
 7       -25 EWR      4361 TYS   2013-10-23 19:00:00
 8       -25 LGA      4573 DTW   2013-03-30 20:00:00
 9       -24 JFK      3318 BUF   2013-03-02 14:00:00
10       -24 LGA       375 FLL   2013-05-05 09:00:00
# … with 336,766 more rows

ANSWER: On December 7th, Flight 97 left 43 minutes ahead of schedule traveling from New York City JFK to Denver DEN.

Exercise 8

Sort flights to find the fastest flights. Name the flight at top of the list (e.g. New York City JFK to Chicago ORD).

Code

flights %>% 
  arrange(air_time) %>% 
  select(air_time, origin, flight, dest, time_hour)

# A tibble: 336,776 × 5
   air_time origin flight dest  time_hour          
      <dbl> <chr>   <int> <chr> <dttm>             
 1       20 EWR      4368 BDL   2013-01-16 13:00:00
 2       20 EWR      4631 BDL   2013-04-13 05:00:00
 3       21 EWR      4276 BDL   2013-12-06 08:00:00
 4       21 EWR      4619 PHL   2013-02-03 21:00:00
 5       21 EWR      4368 BDL   2013-02-05 13:00:00
 6       21 EWR      4619 PHL   2013-02-12 21:00:00
 7       21 LGA      2132 BOS   2013-03-02 15:00:00
 8       21 JFK      3650 PHL   2013-03-08 19:00:00
 9       21 EWR      4118 BDL   2013-03-18 13:00:00
10       21 EWR      4276 BDL   2013-03-19 21:00:00
# … with 336,766 more rows
…
ANSWER: Flight 51 traveled the longest, a total of 4983 miles from New York JFK to Honolulu HNL. Flight 1632 traveled the shortest, just 17 miles from Newark EWR to New York LGA.

Exercise 10

Brainstorm at least 3 ways to select dep_time, dep_delay, arr_time, and arr_delay from flights. Hint: Use helper functions

Code

flights %>% 
  select(starts_with("dep") | starts_with ("arr"))

# A tibble: 336,776 × 4
   dep_time dep_delay arr_time arr_delay
      <int>     <dbl>    <int>     <dbl>
 1      517         2      830        11
 2      533         4      850        20
 3      542         2      923        33
 4      544        -1     1004       -18
 5      554        -6      812       -25
 6      554        -4      740        12
 7      555        -5      913        19
 8      557        -3      709       -14
 9      557        -3      838        -8
10      558        -2      753         8
# … with 336,766 more rows

Code

flights %>% 
  select("dep_time" | "arr_time" | ends_with ("delay"))

# A tibble: 336,776 × 4
   dep_time arr_time dep_delay arr_delay
      <int>    <int>     <dbl>     <dbl>
 1      517      830         2        11
 2      533      850         4        20
 3      542      923         2        33
 4      544     1004        -1       -18
 5      554      812        -6       -25
 6      554      740        -4        12
 7      555      913        -5        19
 8      557      709        -3       -14
 9      557      838        -3        -8
10      558      753        -2         8
# … with 336,766 more rows

Code

flights %>% 
  select("dep_time" | "arr_time" | contains ("dep_delay") | contains ("arr_delay"))

# A tibble: 336,776 × 4
   dep_time arr_time dep_delay arr_delay
      <int>    <int>     <dbl>     <dbl>
 1      517      830         2        11
 2      533      850         4        20
 3      542      923         2        33
 4      544     1004        -1       -18
 5      554      812        -6       -25
 6      554      740        -4        12
 7      555      913        -5        19
 8      557      709        -3       -14
 9      557      838        -3        -8
10      558      753        -2         8
# … with 336,766 more rows

Code

varis <- c("dep_time", "arr_time", "dep_delay", "arr_delay")
flights %>% 
  select(any_of(varis))

# A tibble: 336,776 × 4
   dep_time arr_time dep_delay arr_delay
      <int>    <int>     <dbl>     <dbl>
 1      517      830         2        11
 2      533      850         4        20
 3      542      923         2        33
 4      544     1004        -1       -18
 5      554      812        -6       -25
 6      554      740        -4        12
 7      555      913        -5        19
 8      557      709        -3       -14
 9      557      838        -3        -8
10      558      753        -2         8
# … with 336,766 more rows

Exercise 11

What does the any_of() function do? Why might it be helpful in conjunction with the vector below?

Code

vars <- c("year", "month", "day", "dep_delay", "arr_delay")

flights %>% 
  select(any_of(vars))

# A tibble: 336,776 × 5
    year month   day dep_delay arr_delay
   <int> <int> <int>     <dbl>     <dbl>
 1  2013     1     1         2        11
 2  2013     1     1         4        20
 3  2013     1     1         2        33
 4  2013     1     1        -1       -18
 5  2013     1     1        -6       -25
 6  2013     1     1        -4        12
 7  2013     1     1        -5        19
 8  2013     1     1        -3       -14
 9  2013     1     1        -3        -8
10  2013     1     1        -2         8
# … with 336,766 more rows

ANSWER: The ‘any_of()’ function will take a vector and give you all of the variables listed in it. It is flexible, just checking through all variations. If vars are there will not give error, unlike all_of().

Exercise 12

Does the result of running the code below surprise you? Which default setting for contains() causes this to happen? What should happen if you run the code, but with the default setting changed?

Code

select(flights, contains("TIME"))

# A tibble: 336,776 × 6
   dep_time sched_dep_time arr_time sched_arr_time air_time time_hour          
      <int>          <int>    <int>          <int>    <dbl> <dttm>             
 1      517            515      830            819      227 2013-01-01 05:00:00
 2      533            529      850            830      227 2013-01-01 05:00:00
 3      542            540      923            850      160 2013-01-01 05:00:00
 4      544            545     1004           1022      183 2013-01-01 05:00:00
 5      554            600      812            837      116 2013-01-01 06:00:00
 6      554            558      740            728      150 2013-01-01 05:00:00
 7      555            600      913            854      158 2013-01-01 06:00:00
 8      557            600      709            723       53 2013-01-01 06:00:00
 9      557            600      838            846      140 2013-01-01 06:00:00
10      558            600      753            745      138 2013-01-01 06:00:00
# … with 336,766 more rows
…
