L10 Factors
…
Demonstrate how to collapse rincome into a smaller set of categories.

Code

gss_income <- gss_cat %>%
  mutate(incomes = fct_collapse(rincome,
                                other = c("No answer", "Don't know", "Refused", "Not applicable"),
                                lower = c("Lt $1000", "$1000 to 2999", "$3000 to 3999", "$4000 to 4999"),
                                middle = c("$5000 to 5999", "$6000 to 6999", "$7000 to 7999", "$8000 to 9999"),
                                high = c("$10000 - 14999","$15000 - 19999", "$20000 - 24999", "$25000 or more")))

gss_income

# A tibble: 21,483 × 10
    year marital         age race  rincome   partyid relig denom tvhours incomes
   <int> <fct>         <int> <fct> <fct>     <fct>   <fct> <fct>   <int> <fct>  
 1  2000 Never married    26 White $8000 to… Ind,ne… Prot… Sout…      12 middle 
 2  2000 Divorced         48 White $8000 to… Not st… Prot… Bapt…      NA middle 
 3  2000 Widowed          67 White Not appl… Indepe… Prot… No d…       2 other  
 4  2000 Never married    39 White Not appl… Ind,ne… Orth… Not …       4 other  
 5  2000 Divorced         25 White Not appl… Not st… None  Not …       1 other  
 6  2000 Married          25 White $20000 -… Strong… Prot… Sout…      NA high   
 7  2000 Never married    36 White $25000 o… Not st… Chri… Not …       3 high   
 8  2000 Divorced         44 White $7000 to… Ind,ne… Prot… Luth…      NA middle 
 9  2000 Married          44 White $25000 o… Not st… Prot… Other       0 high   
10  2000 Married          47 White $25000 o… Strong… Prot… Sout…       3 high   
# … with 21,473 more rows
